Preparing data for recurrent models • torchts
…
unique(tiny_m5$store_id)
#>  [1] "CA_1" "CA_2" "CA_3" "CA_4" "TX_1" "TX_2" "TX_3" "WI_1" "WI_2" "WI_3"

ca_1_data <-
  tiny_m5 %>% 
  filter(store_id == "CA_1") %>% 
  select(item_id, store_id, date, value, wday,
         month, year, snap, sell_price) %>% 
    arrange(item_id, date)

ca_1_data %>% 
  group_by(item_id) %>% 
  summarise(n = n()) 
#> # A tibble: 28 × 2
#>    item_id         n
#>    <chr>       <int>
#>  1 FOODS_1_033  1913
#>  2 FOODS_1_046  1913
#>  3 FOODS_1_057  1913
#>  4 FOODS_1_218  1913
#>  5 FOODS_2_096  1913
#>  6 FOODS_2_181  1913
#>  7 FOODS_2_352  1913
#>  8 FOODS_2_360  1913
#>  9 FOODS_3_080  1913
#> 10 FOODS_3_377  1913
#> # … with 18 more rows
…
