Convert a data.frame-like object to tensor — as_tensor • torchts
…
euro_stock <-
  as.data.frame(EuStockMarkets) %>%
  mutate(idx = 1:n()) %>%
  tidyr::pivot_longer(c(DAX, SMI, CAC, FTSE))

euro_stock

#> # A tibble: 7,440 x 3
#>      idx name  value
#>    <int> <chr> <dbl>
#>  1     1 DAX   1629.
#>  2     1 SMI   1678.
#>  3     1 CAC   1773.
#>  4     1 FTSE  2444.
#>  5     2 DAX   1614.
#>  6     2 SMI   1688.
#>  7     2 CAC   1750.
#>  8     2 FTSE  2460.
#>  9     3 DAX   1607.
#> 10     3 SMI   1679.
#> # … with 7,430 more rows
…
